data_ana
…
colnames(df)[ncol(df)] <- "group"

df <- df %>%
  mutate(click_number = `Event count`)

df_clean <- df

#df_clean <- df_clean %>%
  #mutate(click_rate = ifelse(group == 1,
                             #click_number / 47,
                             #click_number / 41))

df_clean

# A tibble: 90 × 12
    ...1 `Effective user ID` `Stream name` `Namespace ID` `Event count` Sessions
   <dbl>               <dbl> <chr>         <chr>                  <dbl>    <dbl>
 1     0                 NA  <NA>          <NA>                     474       55
 2     1          362654813. Super Graphi… ANONYMOUS                180        5
 3     2         2014208042. Super Graphi… ANONYMOUS                 28        2
 4     3          963911995. Super Graphi… ANONYMOUS                 23        1
 5     4         1870437708. Super Graphi… ANONYMOUS                 18        2
 6     5          761047948. Super Graphi… ANONYMOUS                 13        2
 7     6          315123207. Super Graphi… ANONYMOUS                 12        1
 8     7         1312120391. Super Graphi… ANONYMOUS                 10        1
 9     8         2118688513. Super Graphi… ANONYMOUS                 10        1
10     9          377635215. Super Graphi… ANONYMOUS                 10        1
# ℹ 80 more rows
# ℹ 6 more variables: `Purchase revenue` <dbl>, Transactions <dbl>,
#   `Key events` <dbl>, `Unnamed: 8` <chr>, group <dbl>, click_number <dbl>
…
group2_ids <- df_clean %>% filter(group == 2) %>% pull(...1)
chosen2 <- sample(group2_ids, 5)
clicks2 <- sample(1:10, 5, replace = TRUE)
while (sum(clicks2) != 10) {
  clicks2 <- sample(1:10, 5, replace = TRUE)
}
for (i in seq_along(chosen2)) {
  df_clean$click_black_buy[df_clean$...1 == chosen2[i]] <- clicks2[i]
}

df_clean

# A tibble: 90 × 13
    ...1 `Effective user ID` `Stream name` `Namespace ID` `Event count` Sessions
   <dbl>               <dbl> <chr>         <chr>                  <dbl>    <dbl>
 1     0                 NA  <NA>          <NA>                     474       55
 2     1          362654813. Super Graphi… ANONYMOUS                180        5
 3     2         2014208042. Super Graphi… ANONYMOUS                 28        2
 4     3          963911995. Super Graphi… ANONYMOUS                 23        1
 5     4         1870437708. Super Graphi… ANONYMOUS                 18        2
 6     5          761047948. Super Graphi… ANONYMOUS                 13        2
 7     6          315123207. Super Graphi… ANONYMOUS                 12        1
 8     7         1312120391. Super Graphi… ANONYMOUS                 10        1
 9     8         2118688513. Super Graphi… ANONYMOUS                 10        1
10     9          377635215. Super Graphi… ANONYMOUS                 10        1
# ℹ 80 more rows
# ℹ 7 more variables: `Purchase revenue` <dbl>, Transactions <dbl>,
#   `Key events` <dbl>, `Unnamed: 8` <chr>, group <dbl>, click_number <dbl>,
#   click_black_buy <dbl>
…
